{
  "data": [
    {
      "id": "m9xlmy",
      "url": "https://wallhaven.cc/w/m9xlmy",
      "short_url": "https://whvn.cc/m9xlmy",
      "views": 838,
      "favorites": 43,
      "source": "",
      "purity": "sfw",
      "category": "anime",
      "dimension_x": 1920,
      "dimension_y": 1080,
      "resolution": "1920x1080",
      "ratio": "1.78",
      "file_size": 211445,
      "file_type": "image/jpeg",
      "created_at": "2022-08-12 11:03:31",
      "colors": [
        "#424153",
        "#000000",
        "#999999",
        "#996633",
        "#cc6633"
      ],
      "path": "https://w.wallhaven.cc/full/m9/wallhaven-m9xlmy.jpg",
      "thumbs": {
        "large": "https://th.wallhaven.cc/lg/m9/m9xlmy.jpg",
        "original": "https://th.wallhaven.cc/orig/m9/m9xlmy.jpg",
        "small": "https://th.wallhaven.cc/small/m9/m9xlmy.jpg"
      }
    },
    {
      "id": "572g95",
      "url": "https://wallhaven.cc/w/572g95",
      "short_url": "https://whvn.cc/572g95",
      "views": 544,
      "favorites": 17,
      "source": "",
      "purity": "sfw",
      "category": "anime",
      "dimension_x": 1920,
      "dimension_y": 1080,
      "resolution": "1920x1080",
      "ratio": "1.78",
      "file_size": 548376,
      "file_type": "image/jpeg",
      "created_at": "2022-08-11 21:03:50",
      "colors": [
        "#000000",
        "#424153",
        "#999999",
        "#cccccc",
        "#663399"
      ],
      "path": "https://w.wallhaven.cc/full/57/wallhaven-572g95.jpg",
      "thumbs": {
        "large": "https://th.wallhaven.cc/lg/57/572g95.jpg",
        "original": "https://th.wallhaven.cc/orig/57/572g95.jpg",
        "small": "https://th.wallhaven.cc/small/57/572g95.jpg"
      }
    },
    {
      "id": "1k9qev",
      "url": "https://wallhaven.cc/w/1k9qev",
      "short_url": "https://whvn.cc/1k9qev",
      "views": 439,
      "favorites": 11,
      "source": "",
      "purity": "sfw",
      "category": "anime",
      "dimension_x": 1920,
      "dimension_y": 1080,
      "resolution": "1920x1080",
      "ratio": "1.78",
      "file_size": 247969,
      "file_type": "image/jpeg",
      "created_at": "2022-08-12 13:37:42",
      "colors": [
        "#999999",
        "#424153",
        "#996633",
        "#663399",
        "#e7d8b1"
      ],
      "path": "https://w.wallhaven.cc/full/1k/wallhaven-1k9qev.jpg",
      "thumbs": {
        "large": "https://th.wallhaven.cc/lg/1k/1k9qev.jpg",
        "original": "https://th.wallhaven.cc/orig/1k/1k9qev.jpg",
        "small": "https://th.wallhaven.cc/small/1k/1k9qev.jpg"
      }
    },
    {
      "id": "m9xly1",
      "url": "https://wallhaven.cc/w/m9xly1",
      "short_url": "https://whvn.cc/m9xly1",
      "views": 456,
      "favorites": 36,
      "source": "",
      "purity": "sketchy",
      "category": "anime",
      "dimension_x": 1920,
      "dimension_y": 1080,
      "resolution": "1920x1080",
      "ratio": "1.78",
      "file_size": 3091035,
      "file_type": "image/png",
      "created_at": "2022-08-12 06:42:51",
      "colors": [
        "#999999",
        "#cccccc",
        "#424153",
        "#996633",
        "#e7d8b1"
      ],
      "path": "https://w.wallhaven.cc/full/m9/wallhaven-m9xly1.png",
      "thumbs": {
        "large": "https://th.wallhaven.cc/lg/m9/m9xly1.jpg",
        "original": "https://th.wallhaven.cc/orig/m9/m9xly1.jpg",
        "small": "https://th.wallhaven.cc/small/m9/m9xly1.jpg"
      }
    },
    {
      "id": "72yjl9",
      "url": "https://wallhaven.cc/w/72yjl9",
      "short_url": "https://whvn.cc/72yjl9",
      "views": 316,
      "favorites": 28,
      "source": "",
      "purity": "sketchy",
      "category": "anime",
      "dimension_x": 1920,
      "dimension_y": 1080,
      "resolution": "1920x1080",
      "ratio": "1.78",
      "file_size": 3010807,
      "file_type": "image/png",
      "created_at": "2022-08-12 06:41:53",
      "colors": [
        "#999999",
        "#424153",
        "#996633",
        "#cccccc",
        "#e7d8b1"
      ],
      "path": "https://w.wallhaven.cc/full/72/wallhaven-72yjl9.png",
      "thumbs": {
        "large": "https://th.wallhaven.cc/lg/72/72yjl9.jpg",
        "original": "https://th.wallhaven.cc/orig/72/72yjl9.jpg",
        "small": "https://th.wallhaven.cc/small/72/72yjl9.jpg"
      }
    },
    {
      "id": "v9wq6p",
      "url": "https://wallhaven.cc/w/v9wq6p",
      "short_url": "https://whvn.cc/v9wq6p",
      "views": 245,
      "favorites": 10,
      "source": "",
      "purity": "sfw",
      "category": "anime",
      "dimension_x": 1920,
      "dimension_y": 1080,
      "resolution": "1920x1080",
      "ratio": "1.78",
      "file_size": 357939,
      "file_type": "image/jpeg",
      "created_at": "2022-08-11 21:03:50",
      "colors": [
        "#999999",
        "#abbcda",
        "#424153",
        "#66cccc",
        "#333399"
      ],
      "path": "https://w.wallhaven.cc/full/v9/wallhaven-v9wq6p.jpg",
      "thumbs": {
        "large": "https://th.wallhaven.cc/lg/v9/v9wq6p.jpg",
        "original": "https://th.wallhaven.cc/orig/v9/v9wq6p.jpg",
        "small": "https://th.wallhaven.cc/small/v9/v9wq6p.jpg"
      }
    },
    {
      "id": "j3m3v5",
      "url": "https://wallhaven.cc/w/j3m3v5",
      "short_url": "https://whvn.cc/j3m3v5",
      "views": 231,
      "favorites": 3,
      "source": "",
      "purity": "sfw",
      "category": "anime",
      "dimension_x": 1920,
      "dimension_y": 1080,
      "resolution": "1920x1080",
      "ratio": "1.78",
      "file_size": 2348982,
      "file_type": "image/png",
      "created_at": "2022-08-10 01:40:12",
      "colors": [
        "#000000",
        "#996633",
        "#424153",
        "#663300",
        "#999999"
      ],
      "path": "https://w.wallhaven.cc/full/j3/wallhaven-j3m3v5.png",
      "thumbs": {
        "large": "https://th.wallhaven.cc/lg/j3/j3m3v5.jpg",
        "original": "https://th.wallhaven.cc/orig/j3/j3m3v5.jpg",
        "small": "https://th.wallhaven.cc/small/j3/j3m3v5.jpg"
      }
    },
    {
      "id": "l3532q",
      "url": "https://wallhaven.cc/w/l3532q",
      "short_url": "https://whvn.cc/l3532q",
      "views": 224,
      "favorites": 2,
      "source": "",
      "purity": "sfw",
      "category": "anime",
      "dimension_x": 1920,
      "dimension_y": 1080,
      "resolution": "1920x1080",
      "ratio": "1.78",
      "file_size": 1913876,
      "file_type": "image/png",
      "created_at": "2022-08-10 01:40:12",
      "colors": [
        "#424153",
        "#000000",
        "#999999",
        "#663300",
        "#e7d8b1"
      ],
      "path": "https://w.wallhaven.cc/full/l3/wallhaven-l3532q.png",
      "thumbs": {
        "large": "https://th.wallhaven.cc/lg/l3/l3532q.jpg",
        "original": "https://th.wallhaven.cc/orig/l3/l3532q.jpg",
        "small": "https://th.wallhaven.cc/small/l3/l3532q.jpg"
      }
    },
    {
      "id": "m9jjp9",
      "url": "https://wallhaven.cc/w/m9jjp9",
      "short_url": "https://whvn.cc/m9jjp9",
      "views": 5726,
      "favorites": 80,
      "source": "https://www.artstation.com/artwork/PeVnE4",
      "purity": "sfw",
      "category": "anime",
      "dimension_x": 1920,
      "dimension_y": 1080,
      "resolution": "1920x1080",
      "ratio": "1.78",
      "file_size": 459747,
      "file_type": "image/jpeg",
      "created_at": "2022-08-04 23:33:20",
      "colors": [
        "#66cccc",
        "#424153",
        "#abbcda",
        "#cccccc",
        "#0066cc"
      ],
      "path": "https://w.wallhaven.cc/full/m9/wallhaven-m9jjp9.jpg",
      "thumbs": {
        "large": "https://th.wallhaven.cc/lg/m9/m9jjp9.jpg",
        "original": "https://th.wallhaven.cc/orig/m9/m9jjp9.jpg",
        "small": "https://th.wallhaven.cc/small/m9/m9jjp9.jpg"
      }
    },
    {
      "id": "57xoy7",
      "url": "https://wallhaven.cc/w/57xoy7",
      "short_url": "https://whvn.cc/57xoy7",
      "views": 6587,
      "favorites": 53,
      "source": "",
      "purity": "sfw",
      "category": "anime",
      "dimension_x": 1920,
      "dimension_y": 1080,
      "resolution": "1920x1080",
      "ratio": "1.78",
      "file_size": 2025697,
      "file_type": "image/png",
      "created_at": "2022-07-12 17:12:37",
      "colors": [
        "#333399",
        "#424153",
        "#663399",
        "#000000",
        "#ffffff"
      ],
      "path": "https://w.wallhaven.cc/full/57/wallhaven-57xoy7.png",
      "thumbs": {
        "large": "https://th.wallhaven.cc/lg/57/57xoy7.jpg",
        "original": "https://th.wallhaven.cc/orig/57/57xoy7.jpg",
        "small": "https://th.wallhaven.cc/small/57/57xoy7.jpg"
      }
    },
    {
      "id": "o3okm7",
      "url": "https://wallhaven.cc/w/o3okm7",
      "short_url": "https://whvn.cc/o3okm7",
      "views": 3146,
      "favorites": 124,
      "source": "",
      "purity": "sfw",
      "category": "anime",
      "dimension_x": 1920,
      "dimension_y": 1080,
      "resolution": "1920x1080",
      "ratio": "1.78",
      "file_size": 1265845,
      "file_type": "image/jpeg",
      "created_at": "2022-08-07 03:36:23",
      "colors": [
        "#ffffff",
        "#999999",
        "#e7d8b1",
        "#424153",
        "#cccccc"
      ],
      "path": "https://w.wallhaven.cc/full/o3/wallhaven-o3okm7.jpg",
      "thumbs": {
        "large": "https://th.wallhaven.cc/lg/o3/o3okm7.jpg",
        "original": "https://th.wallhaven.cc/orig/o3/o3okm7.jpg",
        "small": "https://th.wallhaven.cc/small/o3/o3okm7.jpg"
      }
    },
    {
      "id": "wqzd16",
      "url": "https://wallhaven.cc/w/wqzd16",
      "short_url": "https://whvn.cc/wqzd16",
      "views": 3979,
      "favorites": 94,
      "source": "",
      "purity": "sfw",
      "category": "anime",
      "dimension_x": 1920,
      "dimension_y": 1080,
      "resolution": "1920x1080",
      "ratio": "1.78",
      "file_size": 4117935,
      "file_type": "image/png",
      "created_at": "2022-07-27 05:43:21",
      "colors": [
        "#424153",
        "#000000",
        "#999999",
        "#996633",
        "#e7d8b1"
      ],
      "path": "https://w.wallhaven.cc/full/wq/wallhaven-wqzd16.png",
      "thumbs": {
        "large": "https://th.wallhaven.cc/lg/wq/wqzd16.jpg",
        "original": "https://th.wallhaven.cc/orig/wq/wqzd16.jpg",
        "small": "https://th.wallhaven.cc/small/wq/wqzd16.jpg"
      }
    },
    {
      "id": "8ozzxk",
      "url": "https://wallhaven.cc/w/8ozzxk",
      "short_url": "https://whvn.cc/8ozzxk",
      "views": 3008,
      "favorites": 66,
      "source": "https://www.artstation.com/artwork/qQXz52",
      "purity": "sfw",
      "category": "anime",
      "dimension_x": 1920,
      "dimension_y": 1080,
      "resolution": "1920x1080",
      "ratio": "1.78",
      "file_size": 584528,
      "file_type": "image/jpeg",
      "created_at": "2022-08-04 23:33:20",
      "colors": [
        "#999999",
        "#cccccc",
        "#abbcda",
        "#66cccc",
        "#0099cc"
      ],
      "path": "https://w.wallhaven.cc/full/8o/wallhaven-8ozzxk.jpg",
      "thumbs": {
        "large": "https://th.wallhaven.cc/lg/8o/8ozzxk.jpg",
        "original": "https://th.wallhaven.cc/orig/8o/8ozzxk.jpg",
        "small": "https://th.wallhaven.cc/small/8o/8ozzxk.jpg"
      }
    },
    {
      "id": "g7yomq",
      "url": "https://wallhaven.cc/w/g7yomq",
      "short_url": "https://whvn.cc/g7yomq",
      "views": 2727,
      "favorites": 28,
      "source": "https://www.tumblr.com/blog/view/haruka-tn/687441583996616704?source=share",
      "purity": "sfw",
      "category": "anime",
      "dimension_x": 1920,
      "dimension_y": 1080,
      "resolution": "1920x1080",
      "ratio": "1.78",
      "file_size": 2562882,
      "file_type": "image/png",
      "created_at": "2022-07-17 14:16:47",
      "colors": [
        "#ffffff",
        "#424153",
        "#000000",
        "#996633",
        "#ffcc33"
      ],
      "path": "https://w.wallhaven.cc/full/g7/wallhaven-g7yomq.png",
      "thumbs": {
        "large": "https://th.wallhaven.cc/lg/g7/g7yomq.jpg",
        "original": "https://th.wallhaven.cc/orig/g7/g7yomq.jpg",
        "small": "https://th.wallhaven.cc/small/g7/g7yomq.jpg"
      }
    }
  ],
  "meta": {
    "current_page": 1,
    "last_page": 2,
    "per_page": 24,
    "total": 29,
    "query": null,
    "seed": null
  }
}